{
    "apps": [
        {
            "name": "api",
            "script": "./index.js",
            "max_restarts": 20,
            "instances": 1,
            "max_memory_restart": "200M",
            "env": {
                "PORT": 3000,
                "NODE_ENV": "production",
                "PG_USER": "root",
                "PG_PASSWORD": "root",
                "PG_HOST": "pg_container_conf",
                "PG_PORT": 5432,
                "PG_DATABASE": "test_db",
                "TOKEN_KEY": "test"
            }
        }
    ]
}